{
    "controllers": {
        "@symfony/ux-autocomplete": {
            "autocomplete": {
                "enabled": true,
                "fetch": "eager",
                "autoimport": {
                    "tom-select/dist/css/tom-select.default.css": true
                }
            }
        },
        "@symfony/ux-chartjs": {
            "chart": {
                "enabled": true,
                "fetch": "eager"
            }
        },
        "@symfony/ux-turbo": {
            "turbo-core": {
                "enabled": true,
                "fetch": "eager"
            }
        }
    },
    "entrypoints": []
}
